﻿"COD_ARCHFTP","COD_CUNTFTP","USRAPP","RUTA","NOM_ARCHIVO","ESTADO","FEC_CREACION","FEC_ACTUALIZACION","USR_CREACION","USR_MODIFICACION","EXTENSION","TAMANO"
"1","1","ONTPFC","/ONTPFC/CONFIGURACION/FICHA_TECNICA/","ABIRATERONA.PDF","A","","","ONTPFC","",".pdf","2000"
"2","1","ONTPFC","/ONTPFC/CONFIGURACION/FICHA_TECNICA/","AFATINIB.PDF","A","","","ONTPFC","",".pdf","2000"
"3","1","ONTPFC","/ONTPFC/CONFIGURACION/FICHA_TECNICA/","ALECTINIB.PDF","A","","","ONTPFC","",".pdf","2000"
"4","1","ONTPFC","/ONTPFC/CONFIGURACION/FICHA_TECNICA/","ALEMTUZUMAB.PDF","A","","","ONTPFC","",".pdf","2000"
"5","1","ONTPFC","/ONTPFC/CONFIGURACION/FICHA_TECNICA/","ATEZOLIZUMAB.PDF","A","","","ONTPFC","",".pdf","2000"
"6","1","ONTPFC","/ONTPFC/CONFIGURACION/FICHA_TECNICA/","AXITINIB.PDF","A","","","ONTPFC","",".pdf","2000"
"7","1","ONTPFC","/ONTPFC/CONFIGURACION/FICHA_TECNICA/","AZACITIDINA .PDF","A","","","ONTPFC","",".pdf","2000"
"8","1","ONTPFC","/ONTPFC/CONFIGURACION/FICHA_TECNICA/","BENDAMUSTINA.PDF","A","","","ONTPFC","",".pdf","2000"
"9","1","ONTPFC","/ONTPFC/CONFIGURACION/FICHA_TECNICA/","BORTEZOMIB.PDF","A","","","ONTPFC","",".pdf","2000"
"10","1","ONTPFC","/ONTPFC/CONFIGURACION/FICHA_TECNICA/","BRENTUXIMAB.PDF","A","","","ONTPFC","",".pdf","2000"
"11","1","ONTPFC","/ONTPFC/CONFIGURACION/FICHA_TECNICA/","CABAZITAXEL.PDF","A","","","ONTPFC","",".pdf","2000"
"12","1","ONTPFC","/ONTPFC/CONFIGURACION/FICHA_TECNICA/","CLOFARABINA.PDF","A","","","ONTPFC","",".pdf","2000"
"13","1","ONTPFC","/ONTPFC/CONFIGURACION/FICHA_TECNICA/","CRIZOTINIB.PDF","A","","","ONTPFC","",".pdf","2000"
"14","1","ONTPFC","/ONTPFC/CONFIGURACION/FICHA_TECNICA/","DABRAFENIB.PDF","A","","","ONTPFC","",".pdf","2000"
"15","1","ONTPFC","/ONTPFC/CONFIGURACION/FICHA_TECNICA/","DARATUMUMAB.PDF","A","","","ONTPFC","",".pdf","2000"
"16","1","ONTPFC","/ONTPFC/CONFIGURACION/FICHA_TECNICA/","DASATINIB.PDF","A","","","ONTPFC","",".pdf","2000"
"17","1","ONTPFC","/ONTPFC/CONFIGURACION/FICHA_TECNICA/","ENZALUTAMIDA.PDF","A","","","ONTPFC","",".pdf","2000"
"18","1","ONTPFC","/ONTPFC/CONFIGURACION/FICHA_TECNICA/","ERWINIA_ASPARAGINASA.PDF","A","","","ONTPFC","",".pdf","2000"
"19","1","ONTPFC","/ONTPFC/CONFIGURACION/FICHA_TECNICA/","EVEROLIMUS.PDF","A","","","ONTPFC","",".pdf","2000"
"20","1","ONTPFC","/ONTPFC/CONFIGURACION/FICHA_TECNICA/","IBRUTINIB.PDF","A","","","ONTPFC","",".pdf","2000"
"21","1","ONTPFC","/ONTPFC/CONFIGURACION/FICHA_TECNICA/","IPILIMUMAB.PDF","A","","","ONTPFC","",".pdf","2000"
"22","1","ONTPFC","/ONTPFC/CONFIGURACION/FICHA_TECNICA/","LENALIDOMIDA.PDF","A","","","ONTPFC","",".pdf","2000"
"23","1","ONTPFC","/ONTPFC/CONFIGURACION/FICHA_TECNICA/","NAB_PACLITAXEL.PDF","A","","","ONTPFC","",".pdf","2000"
"24","1","ONTPFC","/ONTPFC/CONFIGURACION/FICHA_TECNICA/","NILOTINIB.PDF","A","","","ONTPFC","",".pdf","2000"
"25","1","ONTPFC","/ONTPFC/CONFIGURACION/FICHA_TECNICA/","NINTEDANIB.PDF","A","","","ONTPFC","",".pdf","2000"
"26","1","ONTPFC","/ONTPFC/CONFIGURACION/FICHA_TECNICA/","NIVOLUMAB.PDF","A","","","ONTPFC","",".pdf","2000"
"27","1","ONTPFC","/ONTPFC/CONFIGURACION/FICHA_TECNICA/","OBINUTUZUMAB.PDF","A","","","ONTPFC","",".pdf","2000"
"28","1","ONTPFC","/ONTPFC/CONFIGURACION/FICHA_TECNICA/","OFATUMUMAB.PDF","A","","","ONTPFC","",".pdf","2000"
"29","1","ONTPFC","/ONTPFC/CONFIGURACION/FICHA_TECNICA/","OLAPARIB.PDF","A","","","ONTPFC","",".pdf","2000"
"30","1","ONTPFC","/ONTPFC/CONFIGURACION/FICHA_TECNICA/","OSIMERTINIB.PDF","A","","","ONTPFC","",".pdf","2000"
"31","1","ONTPFC","/ONTPFC/CONFIGURACION/FICHA_TECNICA/","PALBOCICLIB.PDF","A","","","ONTPFC","",".pdf","2000"
"32","1","ONTPFC","/ONTPFC/CONFIGURACION/FICHA_TECNICA/","PANITUMUMAB.PDF","A","","","ONTPFC","",".pdf","2000"
"33","1","ONTPFC","/ONTPFC/CONFIGURACION/FICHA_TECNICA/","PAZOPANIB.PDF","A","","","ONTPFC","",".pdf","2000"
"34","1","ONTPFC","/ONTPFC/CONFIGURACION/FICHA_TECNICA/","PEGASPARAGINASA.PDF","A","","","ONTPFC","",".pdf","2000"
"35","1","ONTPFC","/ONTPFC/CONFIGURACION/FICHA_TECNICA/","PEMBROLIZUMAB.PDF","A","","","ONTPFC","",".pdf","2000"
"36","1","ONTPFC","/ONTPFC/CONFIGURACION/FICHA_TECNICA/","PERTUZUMAB.PDF","A","","","ONTPFC","",".pdf","2000"
"37","1","ONTPFC","/ONTPFC/CONFIGURACION/FICHA_TECNICA/","PLERIXAFOR .PDF","A","","","ONTPFC","",".pdf","2000"
"38","1","ONTPFC","/ONTPFC/CONFIGURACION/FICHA_TECNICA/","POMALIDOMIDA.PDF","A","","","ONTPFC","",".pdf","2000"
"39","1","ONTPFC","/ONTPFC/CONFIGURACION/FICHA_TECNICA/","PONATINIB.PDF","A","","","ONTPFC","",".pdf","2000"
"40","1","ONTPFC","/ONTPFC/CONFIGURACION/FICHA_TECNICA/","RAMUCIRUMAB.PDF","A","","","ONTPFC","",".pdf","2000"
"41","1","ONTPFC","/ONTPFC/CONFIGURACION/FICHA_TECNICA/","REGORAFENIB.PDF","A","","","ONTPFC","",".pdf","2000"
"42","1","ONTPFC","/ONTPFC/CONFIGURACION/FICHA_TECNICA/","RUXOLITINIB.PDF","A","","","ONTPFC","",".pdf","2000"
"43","1","ONTPFC","/ONTPFC/CONFIGURACION/FICHA_TECNICA/","SORAFENIB.PDF","A","","","ONTPFC","",".pdf","2000"
"44","1","ONTPFC","/ONTPFC/CONFIGURACION/FICHA_TECNICA/","SUNITINIB.PDF","A","","","ONTPFC","",".pdf","2000"
"45","1","ONTPFC","/ONTPFC/CONFIGURACION/FICHA_TECNICA/","TRAMETINIB.PDF","A","","","ONTPFC","",".pdf","2000"
"46","1","ONTPFC","/ONTPFC/CONFIGURACION/FICHA_TECNICA/","TRASTUZUMAB_EMTANSINE.PDF","A","","","ONTPFC","",".pdf","2000"
"47","1","ONTPFC","/ONTPFC/CONFIGURACION/FICHA_TECNICA/","VEMURAFENIF_COBIMETINIB_PDF","A","","","ONTPFC","",".pdf","2000"
"48","1","ONTPFC","/ONTPFC/CONFIGURACION/FICHA_TECNICA/","VENETOCLAX.PDF","A","","","ONTPFC","",".pdf","2000"
"49","1","ONTPFC","/ONTPFC/CONFIGURACION/FICHA_TECNICA/","VORINOSTAT.PDF","A","","","ONTPFC","",".pdf","2000"
"50","1","ONTPFC","/ONTPFC/CONFIGURACION/FICHA_TECNICA/","RIBOCICLIB_INH_AROMATASA.PDF","A","","","ONTPFC","",".pdf","2000"
"51","1","ONTPFC","/ONTPFC/CONFIGURACION/FICHA_TECNICA/","RIBOCICLIB_FULVESTRANT.PDF","A","","","ONTPFC","",".pdf","2000"
"52","1","ONTPFC","/ONTPFC/CONFIGURACION/COMPLICACIONES_MEDICAS/","ABIRATERONA.PDF","A","","","ONTPFC","",".pdf","2000"
"53","1","ONTPFC","/ONTPFC/CONFIGURACION/COMPLICACIONES_MEDICAS/","AFATINIB.PDF","A","","","ONTPFC","",".pdf","2000"
"54","1","ONTPFC","/ONTPFC/CONFIGURACION/COMPLICACIONES_MEDICAS/","ALECTINIB.PDF","A","","","ONTPFC","",".pdf","2000"
"55","1","ONTPFC","/ONTPFC/CONFIGURACION/COMPLICACIONES_MEDICAS/","ALEMTUZUMAB.PDF","A","","","ONTPFC","",".pdf","2000"
"56","1","ONTPFC","/ONTPFC/CONFIGURACION/COMPLICACIONES_MEDICAS/","ATEZOLIZUMAB.PDF","A","","","ONTPFC","",".pdf","2000"
"57","1","ONTPFC","/ONTPFC/CONFIGURACION/COMPLICACIONES_MEDICAS/","AXITINIB.PDF","A","","","ONTPFC","",".pdf","2000"
"58","1","ONTPFC","/ONTPFC/CONFIGURACION/COMPLICACIONES_MEDICAS/","AZACITIDINA.PDF","A","","","ONTPFC","",".pdf","2000"
"59","1","ONTPFC","/ONTPFC/CONFIGURACION/COMPLICACIONES_MEDICAS/","AZACITIDINA_SUBCUTANEA.PDF","A","","","ONTPFC","",".pdf","2000"
"60","1","ONTPFC","/ONTPFC/CONFIGURACION/COMPLICACIONES_MEDICAS/","BENDAMUSTINA.PDF","A","","","ONTPFC","",".pdf","2000"
"61","1","ONTPFC","/ONTPFC/CONFIGURACION/COMPLICACIONES_MEDICAS/","BORTEZOMIB.PDF","A","","","ONTPFC","",".pdf","2000"
"62","1","ONTPFC","/ONTPFC/CONFIGURACION/COMPLICACIONES_MEDICAS/","BORTEZOMIB_CICLOFOSFAMIDA_DEXAMETASONA.PDF","A","","","ONTPFC","",".pdf","2000"
"63","1","ONTPFC","/ONTPFC/CONFIGURACION/COMPLICACIONES_MEDICAS/","BORTEZOMIB_LENALIDOMIDA_DEXAMETASONA.PDF","A","","","ONTPFC","",".pdf","2000"
"64","1","ONTPFC","/ONTPFC/CONFIGURACION/COMPLICACIONES_MEDICAS/","BRENTUXIMAB.PDF","A","","","ONTPFC","",".pdf","2000"
"65","1","ONTPFC","/ONTPFC/CONFIGURACION/COMPLICACIONES_MEDICAS/","CABAZITAXEL.PDF","A","","","ONTPFC","",".pdf","2000"
"66","1","ONTPFC","/ONTPFC/CONFIGURACION/COMPLICACIONES_MEDICAS/","CARBOPLATINO_PEMETREXED_PEMBROLIZUMAB.PDF","A","","","ONTPFC","",".pdf","2000"
"67","1","ONTPFC","/ONTPFC/CONFIGURACION/COMPLICACIONES_MEDICAS/","CLOFARABINA.PDF","A","","","ONTPFC","",".pdf","2000"
"68","1","ONTPFC","/ONTPFC/CONFIGURACION/COMPLICACIONES_MEDICAS/","CRIZOTINIB.PDF","A","","","ONTPFC","",".pdf","2000"
"69","1","ONTPFC","/ONTPFC/CONFIGURACION/COMPLICACIONES_MEDICAS/","DABRAFENIB.PDF","A","","","ONTPFC","",".pdf","2000"
"70","1","ONTPFC","/ONTPFC/CONFIGURACION/COMPLICACIONES_MEDICAS/","DABRAFENIB_TRAMETINIB.PDF","A","","","ONTPFC","",".pdf","2000"
"71","1","ONTPFC","/ONTPFC/CONFIGURACION/COMPLICACIONES_MEDICAS/","DARATUMUMAB.PDF","A","","","ONTPFC","",".pdf","2000"
"72","1","ONTPFC","/ONTPFC/CONFIGURACION/COMPLICACIONES_MEDICAS/","DARATUMUMAB_LENALIDOMIDA_DEXAMETASONA.PDF","A","","","ONTPFC","",".pdf","2000"
"73","1","ONTPFC","/ONTPFC/CONFIGURACION/COMPLICACIONES_MEDICAS/","DASATINIB.PDF","A","","","ONTPFC","",".pdf","2000"
"74","1","ONTPFC","/ONTPFC/CONFIGURACION/COMPLICACIONES_MEDICAS/","ENZALUTAMIDA.PDF","A","","","ONTPFC","",".pdf","2000"
"75","1","ONTPFC","/ONTPFC/CONFIGURACION/COMPLICACIONES_MEDICAS/","EVEROLIMUS.PDF","A","","","ONTPFC","",".pdf","2000"
"76","1","ONTPFC","/ONTPFC/CONFIGURACION/COMPLICACIONES_MEDICAS/","GEMCITABINA_NAB PACLITAXEL.PDF","A","","","ONTPFC","",".pdf","2000"
"77","1","ONTPFC","/ONTPFC/CONFIGURACION/COMPLICACIONES_MEDICAS/","IBRUTINIB.PDF","A","","","ONTPFC","",".pdf","2000"
"78","1","ONTPFC","/ONTPFC/CONFIGURACION/COMPLICACIONES_MEDICAS/","IBRUTINIB_RITUXIMAB.PDF","A","","","ONTPFC","",".pdf","2000"
"79","1","ONTPFC","/ONTPFC/CONFIGURACION/COMPLICACIONES_MEDICAS/","IPILIMUMAB.PDF","A","","","ONTPFC","",".pdf","2000"
"80","1","ONTPFC","/ONTPFC/CONFIGURACION/COMPLICACIONES_MEDICAS/","LENALIDOMIDA.PDF","A","","","ONTPFC","",".pdf","2000"
"81","1","ONTPFC","/ONTPFC/CONFIGURACION/COMPLICACIONES_MEDICAS/","NAB PACLITAXEL.PDF","A","","","ONTPFC","",".pdf","2000"
"82","1","ONTPFC","/ONTPFC/CONFIGURACION/COMPLICACIONES_MEDICAS/","NAB PACLITAXEL_CARBOPLATINO.PDF","A","","","ONTPFC","",".pdf","2000"
"83","1","ONTPFC","/ONTPFC/CONFIGURACION/COMPLICACIONES_MEDICAS/","NILOTINIB.PDF","A","","","ONTPFC","",".pdf","2000"
"84","1","ONTPFC","/ONTPFC/CONFIGURACION/COMPLICACIONES_MEDICAS/","NINTEDANIB.PDF","A","","","ONTPFC","",".pdf","2000"
"85","1","ONTPFC","/ONTPFC/CONFIGURACION/COMPLICACIONES_MEDICAS/","NIVOLUMAB.PDF","A","","","ONTPFC","",".pdf","2000"
"86","1","ONTPFC","/ONTPFC/CONFIGURACION/COMPLICACIONES_MEDICAS/","NIVOLUMAB_IPILIMUMAB.PDF","A","","","ONTPFC","",".pdf","2000"
"87","1","ONTPFC","/ONTPFC/CONFIGURACION/COMPLICACIONES_MEDICAS/","OBINUTUZUMAB.PDF","A","","","ONTPFC","",".pdf","2000"
"88","1","ONTPFC","/ONTPFC/CONFIGURACION/COMPLICACIONES_MEDICAS/","OBINUTUZUMAB_BENDAMUSTINA.PDF","A","","","ONTPFC","",".pdf","2000"
"89","1","ONTPFC","/ONTPFC/CONFIGURACION/COMPLICACIONES_MEDICAS/","OFATUMUMAB.PDF","A","","","ONTPFC","",".pdf","2000"
"90","1","ONTPFC","/ONTPFC/CONFIGURACION/COMPLICACIONES_MEDICAS/","OFATUMUMAB_CLORAMBUCIL.PDF","A","","","ONTPFC","",".pdf","2000"
"91","1","ONTPFC","/ONTPFC/CONFIGURACION/COMPLICACIONES_MEDICAS/","OFATUMUMAB_FLUDARABINA_CICLOFOSFAMIDA.PDF","A","","","ONTPFC","",".pdf","2000"
"92","1","ONTPFC","/ONTPFC/CONFIGURACION/COMPLICACIONES_MEDICAS/","OLAPARIB.PDF","A","","","ONTPFC","",".pdf","2000"
"93","1","ONTPFC","/ONTPFC/CONFIGURACION/COMPLICACIONES_MEDICAS/","OSIMERTINIB.PDF","A","","","ONTPFC","",".pdf","2000"
"94","1","ONTPFC","/ONTPFC/CONFIGURACION/COMPLICACIONES_MEDICAS/","PACLITAXEL_RAMUCIRUMAB.PDF","A","","","ONTPFC","",".pdf","2000"
"95","1","ONTPFC","/ONTPFC/CONFIGURACION/COMPLICACIONES_MEDICAS/","PALBOCICLIB_FUVESTRANT.PDF","A","","","ONTPFC","",".pdf","2000"
"96","1","ONTPFC","/ONTPFC/CONFIGURACION/COMPLICACIONES_MEDICAS/","PALBOCICLIB_INHIBIDOR_AROMATASA.PDF","A","","","ONTPFC","",".pdf","2000"
"97","1","ONTPFC","/ONTPFC/CONFIGURACION/COMPLICACIONES_MEDICAS/","PANITUMUMAB_FOLFIRI.PDF","A","","","ONTPFC","",".pdf","2000"
"98","1","ONTPFC","/ONTPFC/CONFIGURACION/COMPLICACIONES_MEDICAS/","PANITUMUMAB_FOLFOX_4.PDF","A","","","ONTPFC","",".pdf","2000"
"99","1","ONTPFC","/ONTPFC/CONFIGURACION/COMPLICACIONES_MEDICAS/","PAZOPANIB.PDF","A","","","ONTPFC","",".pdf","2000"
"100","1","ONTPFC","/ONTPFC/CONFIGURACION/COMPLICACIONES_MEDICAS/","PEGASPARAGINASA.PDF","A","","","ONTPFC","",".pdf","2000"
"101","1","ONTPFC","/ONTPFC/CONFIGURACION/COMPLICACIONES_MEDICAS/","PEMBROLIZUMAB.PDF","A","","","ONTPFC","",".pdf","2000"
"102","1","ONTPFC","/ONTPFC/CONFIGURACION/COMPLICACIONES_MEDICAS/","PERTUZUMAB_TRASTUZUMAB.PDF","A","","","ONTPFC","",".pdf","2000"
"103","1","ONTPFC","/ONTPFC/CONFIGURACION/COMPLICACIONES_MEDICAS/","PERTUZUMAB_TRASTUZUMAB_DOCETAXEL.PDF","A","","","ONTPFC","",".pdf","2000"
"104","1","ONTPFC","/ONTPFC/CONFIGURACION/COMPLICACIONES_MEDICAS/","PERTUZUMAB_TRASTUZUMAB_DOCETAXEL_CARBOPLATINO.PDF","A","","","ONTPFC","",".pdf","2000"
"105","1","ONTPFC","/ONTPFC/CONFIGURACION/COMPLICACIONES_MEDICAS/","PLERIXAFOR.PDF","A","","","ONTPFC","",".pdf","2000"
"106","1","ONTPFC","/ONTPFC/CONFIGURACION/COMPLICACIONES_MEDICAS/","POMALIDOMIDA.PDF","A","","","ONTPFC","",".pdf","2000"
"107","1","ONTPFC","/ONTPFC/CONFIGURACION/COMPLICACIONES_MEDICAS/","PONATINIB.PDF","A","","","ONTPFC","",".pdf","2000"
"108","1","ONTPFC","/ONTPFC/CONFIGURACION/COMPLICACIONES_MEDICAS/","RAMUCIRUMAB.PDF","A","","","ONTPFC","",".pdf","2000"
"109","1","ONTPFC","/ONTPFC/CONFIGURACION/COMPLICACIONES_MEDICAS/","REGORAFENIB.PDF","A","","","ONTPFC","",".pdf","2000"
"110","1","ONTPFC","/ONTPFC/CONFIGURACION/COMPLICACIONES_MEDICAS/","RIBOCICLIB_FULVESTRANT.PDF","A","","","ONTPFC","",".pdf","2000"
"111","1","ONTPFC","/ONTPFC/CONFIGURACION/COMPLICACIONES_MEDICAS/","RIBOCICLIB_INH_AROMATASA.PDF","A","","","ONTPFC","",".pdf","2000"
"112","1","ONTPFC","/ONTPFC/CONFIGURACION/COMPLICACIONES_MEDICAS/","RUXOLITINIB.PDF","A","","","ONTPFC","",".pdf","2000"
"113","1","ONTPFC","/ONTPFC/CONFIGURACION/COMPLICACIONES_MEDICAS/","SORAFENIB.PDF","A","","","ONTPFC","",".pdf","2000"
"114","1","ONTPFC","/ONTPFC/CONFIGURACION/COMPLICACIONES_MEDICAS/","SUNITINIB.PDF","A","","","ONTPFC","",".pdf","2000"
"115","1","ONTPFC","/ONTPFC/CONFIGURACION/COMPLICACIONES_MEDICAS/","TRASTUZUMAB_EMTANSINE.PDF","A","","","ONTPFC","",".pdf","2000"
"116","1","ONTPFC","/ONTPFC/CONFIGURACION/COMPLICACIONES_MEDICAS/","VEMURAFENIF_COBIMETINIB.PDF","A","","","ONTPFC","",".pdf","2000"
"117","1","ONTPFC","/ONTPFC/CONFIGURACION/COMPLICACIONES_MEDICAS/","VENETOCLAX.PDF","A","","","ONTPFC","",".pdf","2000"
"118","1","ONTPFC","/ONTPFC/CONFIGURACION/COMPLICACIONES_MEDICAS/","VORINOSTAT.PDF","A","","","ONTPFC","",".pdf","2000"
