[
  {
    "Anho": 2019,
    "IdAnho": 7
  },
  {
    "Anho": 2018,
    "IdAnho": 6
  },
  {
    "Anho": 2017,
    "IdAnho": 5
  },
  {
    "Anho": 2016,
    "IdAnho": 4
  },
  {
    "Anho": 2015,
    "IdAnho": 3
  },
  {
    "Anho": 2014,
    "IdAnho": 2
  },
  {
    "Anho": 2013,
    "IdAnho": 1
  }
]
