﻿"COD_GRUPO","CODIGO","NOMBRE","ESTADO"
"44","44","CONTROL DE VARIABLES","1"
"45","45","ESTADO MONITOREO","1"
"52","52","ESTADO MEDICAMENTO MAC","1"
"53","53","TIPO MEDICAMENTO MAC","1"
"62","62","RESULTADO DE EVOLUCIÓN","1"
"63","63","MOTIVO DE INACTIVACIÓN","1"
"68","68","ESTADO CARGA CONTROL DE GASTO","1"
"13","13","LINEA DE METASTASIS","1"
"14","14","LUGAR DE METASTASIS","1"
"15","15","ECOG","1"
"16","16","EXISTE TOXICIDAD","1"
"17","17","TIPO DE TOXICIDAD","1"
"21","21","ESTADO_MARCADOR","1"
"22","22","TIPO_MARCADOR","1"
"23","23","PERIODICIDAD MINIMA","1"
"24","24","PERIODICIDAD MAXIMA","1"
"25","25","POSIBLES_VALORES_EXAMEN_MED","1"
"2","02","ESTADO SOLICITUD PRELIMINAR","1"
"7","07","CORREO_ENVIADO_LIDER_TUMOR","1"
"5","05","ESTADO_SCG_SOLBEN","1"
"6","06","ESTADO_SOLICITUD_EVALUACION","1"
"8","08","CORREO ENVIADO CMAC","1"
"9","09","TIPO_EVALUACION","1"
"10","10","ROL RESPONSABLE DE EVALUACION","1"
"11","11","RANGO DE TIEMPO","1"
"12","12","ESTADO MONITOREO MEDICAMENTO","1"
"1","01","TIPO_SCG_SOLBEN","1"
"3","03","ESTADO MAC MAESTRO","1"
"4","04","TIPO MAC MAESTRO","1"
"18","18","ESTADO_EXAMEN_MEDICO","1"
"19","19","TIPO_EXAMEN","1"
"20","20","TIPO_INGRESO_RESULTADO","1"
"26","26","CONDICION DEL CANCER","1"
"27","27","LINEA DE TRATAMIENTO","1"
"28","28","SUBCONDICION CANCER","1"
"29","29","ESTADO PREFERENCIA INSTITUCIONAL","1"
"30","30","CHKLIST REQUISITOS TIPO DE DOCUMENTO","1"
"31","31","CHKLIST REQUISITOS BOTON CARGAR/ELIMINAR","1"
"32","32","CHK_RESULTADO","1"
"33","33","LINEA TRATAMIENTO NRO CURSOS","1"
"34","34","LINEA TRATAMIENTO TIPO DE TUMOR","1"
"35","35","LINEA TRATAMIENTO LUGAR PROGRESION","1"
"36","36","LINEA TRATAMIENTO RESPUESTA ALCANZADA","1"
"38","38","ANALISIS CONCLUSION PERTINENCIA","1"
"39","39","ANALISIS CONCLUSION CONDICION DEL PACIENTE","1"
"40","40","ANALISIS CONCLUSION TIEMPO DE USO","1"
"41","41","ANALISIS CONCLUSION RESULTADO AUTORIZADOR","1"
"42","42","CONTINUADOR RESULTADO MONITOREO","1"
"37","37","LINEA TRATAMIENTO CUMPLE PREFERENCIA INST","1"
"46","46","TIPO INGRESO RESULTADO","1"
"47","47","ESTADO FICHA TECNICA","1"
"48","48","ESTADO ARCHIVO DE COMPLICACIONES","1"
"54","54","ESTADO CRITERIO INCLUSION","1"
"55","55","ESTADO CRITERIO EXCLUSION","1"
"71","71","INDICADORES","1"
"43","43","MOTIVO INACTIVACION","1"
"51","51","CHECKLIST PACIENTE CUMPLE PERFIL PACIENTE","1"
"56","56","TOLERANCIA","1"
"57","57","TOXICIDAD","1"
"58","58","GRADO","1"
"59","59","RESPUESTA CLINICA","1"
"60","60","ATENCION DE ALERTAS","1"
"64","64","TIPO TRATAMIENTO","1"
"65","65","ESTADO SEGUIMIENTO EJECUTIVO","1"
"67","67","LABORATORIOS","1"
"61","61","TIPO DE MEDICO","1"
"70","70","GUIAS","1"
"69","69","FECHA CARGA DE ARCHIVO DE CONSUMOS","1"
"49","49","ESTADO PRODUCTOS ASOCIADOS","1"
"50","50","ESTADO CONFIGURACION CHECKLIST INDICACION","1"
"66","66","RANGO DE EDAD","1"
