﻿"COD_PREF_INST","COD_PREF_INST_LARGO","COD_MAC","COD_GRP_DIAG","P_CONDICION_CANCER","DETALLE_CONDICION","PRESENTAC_NO_PERMITIDA","P_TIPO_TRATAMIENTO","P_ESTADO","FECHA_CREACION","USUARIO_CREACION","FECHA_MODIFICACION","USUARIO_MODIFICACION"
"1","001","1","037","72","METASTASICO, HORMONOSENSIBLE, NO SINTOMATICO, GLEASSON >8, ECOG 0-2, 2da Línea Tto.","ABIRATERONA 500 MG TABLETA ","239","8","","","",""
"2","002","1","037","73","METASTASICO, RESISTENTE A LA CASTRACION, GLEASSON >8, ECOG 0-2, 1ra Línea Tto.","ABIRATERONA 500 MG TABLETA ","239","8","","","",""
"3","003","2","010","72","METASTASICO, CELULAS NO PEQUEÑAS, EGFR+. OTRO EXON, ECOG 0-2, 1ra Línea Tto.","","239","8","","","",""
"4","004","3","010","72","NO ESPECIFICADA","","238","8","","","",""
"5","005","95","037","72","NO METASTASICO, RESISTENTE A LA CASTRACION","","238","8","","","",""
"6","006","5","022","72","VEJIGA UROTELIAL PARA CISPLATINO INELEGIBLE","","238","8","","","",""
"7","007","5","022","73","VEJIGA UROTELIAL PARA CISPLATINO ELEGIBLE, 2da Línea Tto.","","238","8","","","",""
"8","008","97","010","72","CELULAS NO PEQUEÑAS, NO ESCAMOSO, EGFR-, ALK-, Sin Tto. Previo","","238","8","","","",""
"9","009","6","038","72","CELULAS CLARAS, METASTASICO, RIESGO BAJO/INTERMEDIO, IK 70%, Tto. previo: SUNITINIB/PAZOPANIB, 2da Línea Tto.","","239","8","","","",""
"10","010","75","015","72","METASTASICO, RAS/BRAF MUTADO, ECOG 0-2, >18 años, 1ra Línea Tto.","","239","8","","","",""
"11","011","75","015","73","METASTASICO, LADO DERECHO, RAS/BRAF NO MUTADO, ECOG 0-2, >18 años, 1ra Línea Tto.","","239","8","","","",""
"12","012","74","015","72","METASTASICO, RAS/BRAF MUTADO, ECOG 0-2, >18 años, 1ra Línea Tto.","","239","8","","","",""
"13","013","74","015","73","METASTASICO, LADO DERECHO, RAS/BRAF NO MUTADO, ECOG 0-2, >18 años, 1ra Línea Tto.","","239","8","","","",""
"14","014","96","033","72","EC II, III o IV, 1ra Línea Tto.","","238","8","","","",""
"15","015","96","033","73","Alto riesgo con citoreducción sub-óptima (enfermedad residual>1cm), EC III o IV, 1ra Línea Tto.","","238","8","","","",""
"16","016","96","033","74","Alto riesgo con citoreducción sub-óptima (enfermedad residual>1cm), EC III o IV, 1ra Línea Tto.","","238","8","","","",""
"17","017","76","031","72","METASTASICO, SIN ENFERMEDAD VISCERAL, HER2- / HR+, 3ra Línea Tto.","","239","8","","","",""
"18","018","76","031","73","METASTASICO, SIN ENFERMEDAD VISCERAL, HER2- / HR+, Tto. previo: INHIBIDOR DE AROMATASA, 3ra Línea Tto.","","239","8","","","",""
"19","019","76","031","74","METASTASICO, CON ENFERMEDAD VISCERAL, HER2- / HR+, 2da Línea Tto.","","239","8","","","",""
"20","020","76","031","78","METASTASICO, CON ENFERMEDAD VISCERAL, HER2- / HR+, Tto. previo: INHIBIDOR DE AROMATASA, 2da Línea Tto.","","239","8","","","",""
"21","021","77","010","72","METASTASICO, CELULAS NO PEQUEÑAS, ESCAMOSO, PD-L1 < 50%, ECOG 0-1, 1ra Línea Tto.","","239","8","","","",""
"22","022","52","010","72","METASTASICO, CELULAS NO PEQUEÑAS, NO ESCAMOSO, PD-L1 < 50%, ECOG 0-1, 1ra Línea Tto.","","239","8","","","",""
"23","023","79","015","72","METASTASICO, LADO IZQUIERDO, RAS/BRAF NO MUTADO, ECOG 0-2, >18 años, 1ra Línea Tto.","","239","8","","","",""
"24","024","78","015","72","METASTASICO, LADO IZQUIERDO, RAS/BRAF NO MUTADO, ECOG 0-2, >18 años, 1ra Línea Tto.","","239","8","","","",""
"25","025","80","002","72","TRICOLEUCEMIA","","238","8","","","",""
"26","026","19","010","72","METASTASICO, CELULAS NO PEQUEÑAS, ALK+, ECOG 0-2, 1ra Línea Tto.","","239","8","","","",""
"27","027","19","010","73","METASTASICO, CELULAS NO PEQUEÑAS, ROS-1+, ECOG 0-2, 1ra Línea Tto.","","239","8","","","",""
"28","028","66","006","72","RESECABLE LOCALMENTE AVANZADO","","238","8","","","",""
"29","029","66","006","73","METASTASICO IRRESECABLE, BRAF MUTADO, 1ra Línea Tto.","","238","8","","","",""
"30","030","20","006","72","METASTASICO IRRESECABLE, BRAF MUTADO, 1ra Línea Tto.","","238","8","","","",""
"31","031","81","037","72","METASTASICO, HORMONOSENSIBLE/RESISTENTE A LA CASTRACION, ECOG 0-2, 1ra Línea Tto.","","239","8","","","",""
"32","032","82","037","72","METASTASICO, HORMONOSENSIBLE, SINTOMATICO, GLEASSON >7, ECOG 0-2, 2da Línea Tto.","","239","8","","","",""
"33","033","82","037","73","METASTASICO, RESISTENTE A LA CASTRACION, GLEASSON >7, ECOG 0-2, 3ra Línea Tto.","","239","8","","","",""
"34","034","24","037","72","METASTASICO, HORMONOSENSIBLE/RESISTENTE A LA CASTRACION, 1ra Línea Tto.","","239","8","","","",""
"35","035","24","037","73","METASTASICO, RESISTENTE A LA CASTRACION, 2da Línea Tto.","","239","8","","","",""
"36","036","83","010","72","METASTASICO, CELULAS NO PEQUEÑAS, EGFR+. EXON 19 y 21, ECOG 0-2, 1ra Línea Tto.","","239","8","","","",""
"37","037","84","034","72","LOCALMENTE AVANZADO/MESTASTASICO, ECOG 0-1, <75 años, 1ra Línea Tto.","","239","8","","","",""
"38","038","85","031","72","METASTASICO, SIN ENFERMEDAD VISCERAL, HER2- / HR+, Tto. previo: INHIBIDOR DE AROMATASA, 1ra Línea Tto.","","239","8","","","",""
"39","039","34","034","72","LOCALMENTE AVANZADO/MESTASTASICO, ECOG 0-1, <75 años, Tto. previo: FOLFIRINOX, 2da Línea Tto.","","239","8","","","",""
"40","040","34","034","73","LOCALMENTE AVANZADO/MESTASTASICO, ECOG 2, <75 años, 1ra Línea Tto.","","239","8","","","",""
"41","041","86","031","72","METASTASICO, SIN ENFERMEDAD VISCERAL, HER2- / HR+, 1ra Línea Tto.","","239","8","","","",""
"42","042","29","006","72","METASTASICO IRRESECABLE, 1ra Línea Tto.","","238","8","","","",""
"43","043","29","006","73","METASTASICO IRRESECABLE, Tto. previo: NIVOLUMAB, 2da Línea Tto.","","238","8","","","",""
"44","044","29","006","74","RESECABLE","","238","8","","","",""
"45","045","87","031","72","METASTASICO, CON ENFERMEDAD VISCERAL, HER2- / HR-, ECOG 0-2, Tto. previo: ANTRACICLINAS+TAXANOS+CAPECITABINA, 3ra Línea Tto.","","239","8","","","",""
"46","046","89","031","72","METASTASICO, HER2+, 3ra Línea Tto.","","239","8","","","",""
"47","047","88","031","72","METASTASICO, HER2+, 3ra Línea Tto.","","239","8","","","",""
"48","048","90","031","72","NO ESPECIFICADA","","238","8","","","",""
"49","049","90","037","72","NO ESPECIFICADA","","238","8","","","",""
"50","050","91","032","72","RETINOBLASTOMA, EDAD PEDIATRICA","","239","8","","","",""
"51","051","31","031","72","METASTASICO, CON ENFERMEDAD VISCERAL, HER2- / HR-, ECOG 0-2, Tto. previo: ANTRACICLINAS+TAXANOS+CAPECITABINA, 3ra Línea Tto.","","239","8","","","",""
"52","052","37","006","72","RESECABLE LOCALMENTE AVANZADO","","239","8","","","",""
"53","053","37","006","73","METASTASICO IRRESECABLE, BRAF NO MUTADO, 1ra Línea Tto.","","239","8","","","",""
"54","054","37","006","74","METASTASICO IRRESECABLE, 2da Línea Tto.","","238","8","","","",""
"55","055","37","006","78","METASTASICO IRRESECABLE, BRAF MUTADO, 1ra Línea Tto.","","238","8","","","",""
"56","056","37","011","72","METASTASICO, Tto. previo: QT basada en platinos","","238","8","","","",""
"57","057","37","022","72","VEJIGA UROTELIAL PARA CISPLATINO ELEGIBLE, 2da Línea Tto.","","238","8","","","",""
"58","058","38","006","72","METASTASICO IRRESECABLE, 1ra Línea Tto.","","238","8","","","",""
"59","059","38","038","72","NO ESPECIFICADA","","238","8","","","",""
"76","076","40","005","72","FOLICULAR, Tto. previo: RITUXIMAB, 2da Línea Tto.","","238","8","","","",""
"77","077","40","005","73","FOLICULAR, 1ra Línea Tto.","","238","8","","","",""
"78","078","39","005","72","FOLICULAR, Tto. previo: RITUXIMAB, 2da Línea Tto.","","238","8","","","",""
"79","079","39","005","73","FOLICULAR, 1ra Línea Tto.","","238","8","","","",""
"80","080","92","015","72","TUMOR NEUROENDOCRINO METASTASICO, FUNCIONANTE/NO FUNCIONANTE, G1/G2, ECOG 0-2, >18 años, 1ra Línea Tto.","","239","8","","","",""
"81","081","92","015","73","TUMOR NEUROENDOCRINO METASTASICO, FUNCIONANTE, G3, ECOG 0-2, >18 años, 1ra Línea Tto.","","239","8","","","",""
"82","082","92","021","72","TUMOR NEUROENDOCRINO METASTASICO, FUNCIONANTE/NO FUNCIONANTE, G1/G2, ECOG 0-2, >18 años, 1ra Línea Tto.","","239","8","","","",""
"83","083","92","021","73","TUMOR NEUROENDOCRINO METASTASICO, FUNCIONANTE, G3, ECOG 0-2, >18 años, 1ra Línea Tto.","","239","8","","","",""
"84","084","92","028","72","TUMOR NEUROENDOCRINO METASTASICO, FUNCIONANTE/NO FUNCIONANTE, G1/G2, ECOG 0-2, >18 años, 1ra Línea Tto.","","239","8","","","",""
"85","085","92","028","73","TUMOR NEUROENDOCRINO METASTASICO, FUNCIONANTE, G3, ECOG 0-2, >18 años, 1ra Línea Tto.","","239","8","","","",""
"86","086","92","034","72","TUMOR NEUROENDOCRINO METASTASICO, FUNCIONANTE/NO FUNCIONANTE, G1/G2, ECOG 0-2, >18 años, 1ra Línea Tto.","","239","8","","","",""
"87","087","92","034","73","TUMOR NEUROENDOCRINO METASTASICO, FUNCIONANTE, G3, ECOG 0-2, >18 años, 1ra Línea Tto.","","239","8","","","",""
"88","088","93","015","72","TUMOR NEUROENDOCRINO METASTASICO, FUNCIONANTE/NO FUNCIONANTE, G1/G2, ECOG 0-2, >18 años, Tto. previo: OCTREOTIDE, 2da Línea Tto.","","239","8","","","",""
"89","089","93","015","73","TUMOR NEUROENDOCRINO METASTASICO, FUNCIONANTE, G3, ECOG 0-2, >18 años, Tto. previo: OCTREOTIDE, 2da Línea Tto.","","239","8","","","",""
"90","090","93","021","72","TUMOR NEUROENDOCRINO METASTASICO, FUNCIONANTE/NO FUNCIONANTE, G1/G2, ECOG 0-2, >18 años, Tto. previo: OCTREOTIDE, 2da Línea Tto.","","239","8","","","",""
"91","091","93","021","73","TUMOR NEUROENDOCRINO METASTASICO, FUNCIONANTE, G3, ECOG 0-2, >18 años, Tto. previo: OCTREOTIDE, 2da Línea Tto.","","239","8","","","",""
"92","092","93","028","72","TUMOR NEUROENDOCRINO METASTASICO, FUNCIONANTE/NO FUNCIONANTE, G1/G2, ECOG 0-2, >18 años, Tto. previo: OCTREOTIDE, 2da Línea Tto.","","239","8","","","",""
"93","093","93","028","73","TUMOR NEUROENDOCRINO METASTASICO, FUNCIONANTE, G3, ECOG 0-2, >18 años, Tto. previo: OCTREOTIDE, 2da Línea Tto.","","239","8","","","",""
"94","094","93","034","72","TUMOR NEUROENDOCRINO METASTASICO, FUNCIONANTE/NO FUNCIONANTE, G1/G2, ECOG 0-2, >18 años, Tto. previo: OCTREOTIDE, 2da Línea Tto.","","239","8","","","",""
"95","095","93","034","73","TUMOR NEUROENDOCRINO METASTASICO, FUNCIONANTE, G3, ECOG 0-2, >18 años, Tto. previo: OCTREOTIDE, 2da Línea Tto.","","239","8","","","",""
"96","096","44","010","72","NO ESPECIFICADA","","238","8","","","",""
"97","097","73","031","72","METASTASICO, SIN ENFERMEDAD VISCERAL, HER2- / HR+, 2da Línea Tto.","","239","8","","","",""
"98","098","73","031","73","METASTASICO, CON ENFERMEDAD VISCERAL, HER2- / HR+, 1ra Línea Tto.","","239","8","","","",""
"99","099","45","031","72","METASTASICO, SIN ENFERMEDAD VISCERAL, HER2- / HR+, Tto. previo: INHIBIDOR DE AROMATASA, 2da Línea Tto.","","239","8","","","",""
"100","100","45","031","73","METASTASICO, CON ENFERMEDAD VISCERAL, HER2- / HR+, Tto. previo: INHIBIDOR DE AROMATASA, 1ra Línea Tto.","","239","8","","","",""
"101","101","46","015","72","METASTASICO, LADO IZQUIERDO, RAS/BRAF NO MUTADO, ECOG 0-2, >18 años, 1ra Línea Tto.","","239","8","","","",""
"102","102","47","015","72","METASTASICO, LADO IZQUIERDO, RAS/BRAF NO MUTADO, ECOG 0-2, >18 años, 1ra Línea Tto.","","239","8","","","",""
"103","103","49","038","72","CELULAS CLARAS, METASTASICO, RIESGO BAJO/INTERMEDIO, IK 70%, 1ra Línea Tto.","","239","8","","","",""
"104","104","51","006","72","RESECABLE LOCALMENTE AVANZADO","","238","8","","","",""
"105","105","51","006","73","METASTASICO IRRESECABLE, BRAF NO MUTADO, 1ra Línea Tto.","","238","8","","","",""
"106","106","51","006","74","METASTASICO IRRESECABLE, 2da Línea Tto.","","238","8","","","",""
"107","107","51","006","78","METASTASICO IRRESECABLE, BRAF MUTADO, 1ra Línea Tto.","","238","8","","","",""
"108","108","51","010","72","METASTASICO, CELULAS NO PEQUEÑAS, ESCAMOSO/NO ESCAMOSO, PD-L1 > 50%, ECOG 0-1, 1ra Línea Tto.","","239","8","","","",""
"109","109","51","011","72","METASTASICO, Tto. previo: QT basada en platinos","","238","8","","","",""
"110","110","51","022","72","VEJIGA UROTELIAL PARA CISPLATINO INELEGIBLE","","238","8","","","",""
"111","111","51","022","73","VEJIGA UROTELIAL PARA CISPLATINO ELEGIBLE, 2da Línea Tto.","","238","8","","","",""
"112","112","53","031","72","METASTASICO, HER2+, 1ra Línea Tto.","","239","8","","","",""
"113","113","54","031","72","METASTASICO, HER2+, 1ra Línea Tto.","","239","8","","","",""
"114","114","55","031","72","METASTASICO, HER2+, 1ra Línea Tto.","","239","8","","","",""
"115","115","60","015","72","NO ESPECIFICADA","","238","8","","","",""
"116","116","61","015","72","METASTASICO, RAS/BRAF MUTADO, ECOG 0-2, >18 años, Tto. previo: FLUORPIRIMIDINAS+OXALIPLATINO+IRINOTECAN+BEVACIZUMAB+CETUXIMAB/PANITUMUMAB, 3ra Línea Tto.","","239","8","","","",""
"117","117","61","015","73","METASTASICO, LADO DERECHO, RAS/BRAF NO MUTADO, ECOG 0-2, >18 años, Tto. previo: FLUORPIRIMIDINAS+OXALIPLATINO+IRINOTECAN+BEVACIZUMAB+CETUXIMAB/PANITUMUMAB, 3ra Línea Tto.","","239","8","","","",""
"118","118","61","015","74","METASTASICO, LADO IZQUIERDO, RAS/BRAF NO MUTADO, ECOG 0-2, >18 años, Tto. previo: FLUORPIRIMIDINAS+OXALIPLATINO+IRINOTECAN+BEVACIZUMAB+CETUXIMAB/PANITUMUMAB, 3ra Línea Tto.","","239","8","","","",""
"119","119","61","026","72","METASTASICO, CHILD A, ECOG 0-2, >18 años, Tto. previo: SORAFENIB, 2da Línea Tto.","","239","8","","","",""
"120","120","64","026","72","METASTASICO, CHILD A, ECOG 0-2, >18 años, 1ra Línea Tto.","","239","8","","","",""
"121","121","64","038","72","NO ESPECIFICADA","","238","8","","","",""
"122","122","64","042","72","DIFERENCIADO REFRACTARIO A TERAPIA DE ABLACION CON YODO","","238","8","","","",""
"123","123","65","038","72","CELULAS CLARAS, METASTASICO, RIESGO BAJO/INTERMEDIO, IK 70%, 1ra Línea Tto.","","239","8","","","",""
"124","124","67","031","72","METASTASICO, HER2+, 2da Línea Tto.","","239","8","","","",""
"125","125","94","037","72","METASTASICO, HORMONOSENSIBLE, SINTOMATICO, 1ra Línea Tto.","","239","8","","","",""
"126","126","94","037","73","METASTASICO, HORMONOSENSIBLE, NO SINTOMATICO, 1ra Línea Tto.","","239","8","","","",""
"127","127","68","006","72","METASTASICO IRRESECABLE, BRAF MUTADO, 1ra Línea Tto.","","238","8","","","",""
