﻿"COD_FICHA_TECNICA","COD_VERSION","NOMBRE_ARCHIVO","FEC_INICIO_VIG","FEC_FIN_VIG","P_ESTADO","COD_MAC","COD_FILE_UPLOAD"
"1","01","ABIRATERONA.PDF","1/01/2018","","8","1","1"
"2","01","AFATINIB.PDF","1/01/2018","","8","2","2"
"3","01","ALECTINIB.PDF","1/01/2018","","8","3","3"
"4","01","ALEMTUZUMAB.PDF","1/01/2018","","8","4","4"
"5","01","ATEZOLIZUMAB.PDF","1/01/2018","","8","5","5"
"6","01","AXITINIB.PDF","1/01/2018","","8","6","6"
"7","01","AZACITIDINA .PDF","1/01/2018","","8","8","7"
"8","01","AZACITIDINA .PDF","1/01/2018","","8","9","7"
"9","01","BENDAMUSTINA.PDF","1/01/2018","","8","10","8"
"10","01","BORTEZOMIB.PDF","1/01/2018","","8","12","9"
"11","01","BORTEZOMIB.PDF","1/01/2018","","8","13","9"
"12","01","BORTEZOMIB.PDF","1/01/2018","","8","14","9"
"13","01","BRENTUXIMAB.PDF","1/01/2018","","8","16","10"
"14","01","CABAZITAXEL.PDF","1/01/2018","","8","17","11"
"15","01","CLOFARABINA.PDF","1/01/2018","","8","18","12"
"16","01","CRIZOTINIB.PDF","1/01/2018","","8","19","13"
"17","01","DABRAFENIB.PDF","1/01/2018","","8","20","14"
"18","01","DARATUMUMAB.PDF","1/01/2018","","8","21","15"
"19","01","DARATUMUMAB.PDF","1/01/2018","","8","22","15"
"20","01","DASATINIB.PDF","1/01/2018","","8","23","16"
"21","01","ENZALUTAMIDA.PDF","1/01/2018","","8","24","17"
"22","01","ERWINIA_ASPARAGINASA.PDF","1/01/2018","","8","25","18"
"23","01","EVEROLIMUS.PDF","1/01/2018","","8","26","19"
"24","01","IBRUTINIB.PDF","1/01/2018","","8","27","20"
"25","01","IBRUTINIB.PDF","1/01/2018","","8","28","20"
"26","01","IPILIMUMAB.PDF","1/01/2018","","8","29","21"
"27","01","LENALIDOMIDA.PDF","1/01/2018","","8","30","22"
"28","01","NAB_PACLITAXEL.PDF","1/01/2018","","8","31","23"
"29","01","NAB_PACLITAXEL.PDF","1/01/2018","","8","33","23"
"30","01","NAB_PACLITAXEL.PDF","1/01/2018","","8","34","23"
"31","01","NILOTINIB.PDF","1/01/2018","","8","35","24"
"32","01","NINTEDANIB.PDF","1/01/2018","","8","36","25"
"33","01","NIVOLUMAB.PDF","1/01/2018","","8","37","26"
"34","01","NIVOLUMAB.PDF","1/01/2018","","8","38","26"
"35","01","OBINUTUZUMAB.PDF","1/01/2018","","8","39","27"
"36","01","OBINUTUZUMAB.PDF","1/01/2018","","8","40","27"
"37","01","OFATUMUMAB.PDF","1/01/2018","","8","42","28"
"38","01","OFATUMUMAB.PDF","1/01/2018","","8","71","28"
"39","01","OFATUMUMAB.PDF","1/01/2018","","8","72","28"
"40","01","OLAPARIB.PDF","1/01/2018","","8","43","29"
"41","01","OSIMERTINIB.PDF","1/01/2018","","8","44","30"
"42","01","PALBOCICLIB.PDF","1/01/2018","","8","45","31"
"43","01","PANITUMUMAB.PDF","1/01/2018","","8","46","32"
"44","01","PANITUMUMAB.PDF","1/01/2018","","8","47","32"
"45","01","PAZOPANIB.PDF","1/01/2018","","8","49","33"
"46","01","PEGASPARAGINASA.PDF","1/01/2018","","8","50","34"
"47","01","PEMBROLIZUMAB.PDF","1/01/2018","","8","51","35"
"48","01","PEMBROLIZUMAB.PDF","1/01/2018","","8","52","35"
"49","01","PERTUZUMAB.PDF","1/01/2018","","8","53","36"
"50","01","PERTUZUMAB.PDF","1/01/2018","","8","54","36"
"51","01","PERTUZUMAB.PDF","1/01/2018","","8","55","36"
"52","01","PLERIXAFOR .PDF","1/01/2018","","8","56","37"
"53","01","POMALIDOMIDA.PDF","1/01/2018","","8","57","38"
"54","01","PONATINIB.PDF","1/01/2018","","8","58","39"
"55","01","RAMUCIRUMAB.PDF","1/01/2018","","8","59","40"
"56","01","RAMUCIRUMAB.PDF","1/01/2018","","8","60","40"
"57","01","REGORAFENIB.PDF","1/01/2018","","8","61","41"
"58","01","RUXOLITINIB.PDF","1/01/2018","","8","63","42"
"59","01","SORAFENIB.PDF","1/01/2018","","8","64","43"
"60","01","SUNITINIB.PDF","1/01/2018","","8","65","44"
"61","01","TRAMETINIB.PDF","1/01/2018","","8","66","45"
"62","01","TRASTUZUMAB_EMTANSINE.PDF","1/01/2018","","8","67","46"
"63","01","VEMURAFENIF_COBIMETINIB_PDF","1/01/2018","","8","68","47"
"64","01","VENETOCLAX.PDF","1/01/2018","","8","69","48"
"65","01","VORINOSTAT.PDF","1/01/2018","","8","70","49"
"66","01","PALBOCICLIB.PDF","1/01/2018","","8","73","31"
"67","01","RIBOCICLIB_INH_AROMATASA.PDF","1/04/2019","","8","98","50"
"68","01","RIBOCICLIB_FULVESTRANT.PDF","1/04/2019","","8","99","51"
